# .PCD v0.7 - Point Cloud Data file format
VERSION 0.7
FIELDS x y z
SIZE 4 4 4
TYPE F F F
COUNT 1 1 1
WIDTH 250
HEIGHT 1
VIEWPOINT 0 0 0 1 0 0 0
POINTS 250
DATA ascii
-5.7402301 7.0595698 0.35156199
-5.7441401 7.17383 0.34960899
-5.6005902 7.1093798 0.352539
-5.5468798 7.1533198 0.352539
-5.4921899 7.19629 0.352539
-5.4433599 7.2460899 0.352539
-5.3583999 7.2480502 0.35351601
-5.3203101 7.3134799 0.352539
-5.1767602 7.2333999 0.35644501
-5.17871 7.3544898 0.35449201
-4.9970698 7.21387 0.35839799
-4.9814501 7.3095698 0.35742199
-4.8857398 7.29004 0.35839799
-4.83008 7.3271499 0.35839799
-4.7744098 7.3632798 0.35839799
-4.75 7.4502001 0.35742199
-4.6406202 7.40137 0.359375
-4.59375 7.4541001 0.359375
-4.5058599 7.4365201 0.36035201
-5.70996 9.4453096 0.45019501
-4.4589801 7.4882798 0.36035201
-5.7109399 9.6191397 0.44921899
-4.3769498 7.47754 0.36132801
-5.6044898 9.61133 0.44921899
-4.34375 7.5546899 0.36035201
-5.5634799 9.7148399 0.44921899
-4.2617202 7.5429702 0.36132801
-5.4140601 9.6269503 0.45019501
-4.2226601 7.6093798 0.36035201
-5.3564501 9.7040997 0.45019501
-4.1220698 7.5615201 0.36230499
-5.2421899 9.6747999 0.45019501
-4.0956998 7.6543002 0.36035201
-5.2441401 9.8652296 0.44921899
-4.0097699 7.6308599 0.36132801
-5.0703101 9.71875 0.45019501
-3.99121 7.74121 0.36035201
-5.0341802 9.8378897 0.45019501
-3.8877001 7.6806598 0.36230499
-4.8769498 9.71387 0.45117199
-3.8720701 7.79883 0.36035201
-4.8427701 9.8417997 0.45019501
-3.78613 7.7734399 0.36132801
-4.7021499 9.7421904 0.45117199
-3.7470701 7.8466802 0.36035201
-4.6533198 9.8417997 0.45117199
-3.6543 7.8007798 0.36132801
-4.5068402 9.7207003 0.45214799
-3.6220701 7.8906202 0.36035201
-4.4931598 9.90137 0.45117199
-3.56445 7.9257798 0.36035201
-4.3759799 9.8427696 0.45214799
-3.11133 8.0380898 0.36132801
-3.8310499 10.0762 0.45214799
-3.0165999 7.9648399 0.36328101
-3.7216799 10.0186 0.45214799
-2.9707 8.0332003 0.36230499
-3.6709001 10.1309 0.45214799
-2.86621 7.91992 0.36523399
-3.5595701 10.0625 0.45214799
-2.8222699 7.9970698 0.36425799
-3.50879 10.1826 0.45214799
-2.7109399 7.8535199 0.368164
-3.41113 10.1504 0.45214799
-2.63379 7.8144498 0.36914101
-3.3466799 10.2324 0.45214799
-2.5595701 7.7831998 0.37011701
-3.2490201 10.1982 0.45214799
-2.51074 7.83887 0.36914101
-3.1845701 10.2793 0.45214799
-2.4502001 7.8554702 0.36914101
-3.0664101 10.166 0.453125
-2.3789101 7.8320298 0.37011701
-3 10.2451 0.45214799
-2.32617 7.8769498 0.36914101
-2.8847699 10.1299 0.453125
-2.26074 7.8720698 0.37011701
-2.83691 10.2861 0.45214799
-2.2158201 7.95508 0.368164
-2.7265601 10.1777 0.453125
-2.16699 8.0273399 0.36718801
-2.6582 10.2549 0.453125
-2.0966799 8.0009804 0.368164
-2.5214801 10.0088 0.45507801
-2.0546899 8.1122999 0.366211
-2.4296899 9.9658203 0.45507801
-1.9726599 8.02637 0.368164
-2.3408201 9.93262 0.45507801
-1.92676 8.1269503 0.366211
-2.2714801 9.9960899 0.45507801
-1.85059 8.0595703 0.368164
-2.1835899 9.9619102 0.45507801
-1.79102 8.0898399 0.36718801
-2.11426 10.0342 0.45507801
-1.71777 8.0302696 0.36914101
-2.02441 9.97754 0.45507801
-1.66992 8.13867 0.366211
-1.9668 10.1387 0.45410201
-1.60059 8.09863 0.368164
-1.87695 10.0811 0.45507801
-1.55566 8.2460899 0.36523399
-1.80566 10.1611 0.45410201
-1.4834 8.1845703 0.366211
-1.72168 10.1416 0.45507801
-1.42871 8.2714796 0.36425799
-1.65332 10.2598 0.45410201
-1.35938 8.2285204 0.36523399
-1.56543 10.209 0.45410201
-1.30273 8.3046904 0.36425799
-1.49023 10.2773 0.45410201
-1.2334 8.2607403 0.36523399
-1.4023401 10.2148 0.45410201
-1.1757801 8.3457003 0.36328101
-1.33301 10.3711 0.453125
-1.1084 8.3105497 0.36425799
-1.24902 10.3574 0.453125
-1.0429699 8.29492 0.36523399
-1.1679699 10.3818 0.453125
-0.98046899 8.3378897 0.36425799
-1.08398 10.3672 0.453125
-0.91796899 8.40137 0.36230499
-0.850586 8.34375 0.36425799
-0.91992199 10.4043 0.453125
-0.78906202 8.4658203 0.36132801
-0.72167999 8.3564501 0.36328101
-5.7402301 7.0595698 0.35156199
-5.7441401 7.17383 0.34960899
-5.6005902 7.1093798 0.352539
-5.5468798 7.1533198 0.352539
-5.4921899 7.19629 0.352539
-5.4433599 7.2460899 0.352539
-5.3583999 7.2480502 0.35351601
-5.3203101 7.3134799 0.352539
-5.1767602 7.2333999 0.35644501
-5.17871 7.3544898 0.35449201
-4.9970698 7.21387 0.35839799
-4.9814501 7.3095698 0.35742199
-4.8857398 7.29004 0.35839799
-4.83008 7.3271499 0.35839799
-4.7744098 7.3632798 0.35839799
-4.75 7.4502001 0.35742199
-4.6406202 7.40137 0.359375
-4.59375 7.4541001 0.359375
-4.5058599 7.4365201 0.36035201
-5.70996 9.4453096 0.45019501
-4.4589801 7.4882798 0.36035201
-5.7109399 9.6191397 0.44921899
-4.3769498 7.47754 0.36132801
-5.6044898 9.61133 0.44921899
-4.34375 7.5546899 0.36035201
-5.5634799 9.7148399 0.44921899
-4.2617202 7.5429702 0.36132801
-5.4140601 9.6269503 0.45019501
-4.2226601 7.6093798 0.36035201
-5.3564501 9.7040997 0.45019501
-4.1220698 7.5615201 0.36230499
-5.2421899 9.6747999 0.45019501
-4.0956998 7.6543002 0.36035201
-5.2441401 9.8652296 0.44921899
-4.0097699 7.6308599 0.36132801
-5.0703101 9.71875 0.45019501
-3.99121 7.74121 0.36035201
-5.0341802 9.8378897 0.45019501
-3.8877001 7.6806598 0.36230499
-4.8769498 9.71387 0.45117199
-3.8720701 7.79883 0.36035201
-4.8427701 9.8417997 0.45019501
-3.78613 7.7734399 0.36132801
-4.7021499 9.7421904 0.45117199
-3.7470701 7.8466802 0.36035201
-4.6533198 9.8417997 0.45117199
-3.6543 7.8007798 0.36132801
-4.5068402 9.7207003 0.45214799
-3.6220701 7.8906202 0.36035201
-4.4931598 9.90137 0.45117199
-3.56445 7.9257798 0.36035201
-4.3759799 9.8427696 0.45214799
-3.11133 8.0380898 0.36132801
-3.8310499 10.0762 0.45214799
-3.0165999 7.9648399 0.36328101
-3.7216799 10.0186 0.45214799
-2.9707 8.0332003 0.36230499
-3.6709001 10.1309 0.45214799
-2.86621 7.91992 0.36523399
-3.5595701 10.0625 0.45214799
-2.8222699 7.9970698 0.36425799
-3.50879 10.1826 0.45214799
-2.7109399 7.8535199 0.368164
-3.41113 10.1504 0.45214799
-2.63379 7.8144498 0.36914101
-3.3466799 10.2324 0.45214799
-2.5595701 7.7831998 0.37011701
-3.2490201 10.1982 0.45214799
-2.51074 7.83887 0.36914101
-3.1845701 10.2793 0.45214799
-2.4502001 7.8554702 0.36914101
-3.0664101 10.166 0.453125
-2.3789101 7.8320298 0.37011701
-3 10.2451 0.45214799
-2.32617 7.8769498 0.36914101
-2.8847699 10.1299 0.453125
-2.26074 7.8720698 0.37011701
-2.83691 10.2861 0.45214799
-2.2158201 7.95508 0.368164
-2.7265601 10.1777 0.453125
-2.16699 8.0273399 0.36718801
-2.6582 10.2549 0.453125
-2.0966799 8.0009804 0.368164
-2.5214801 10.0088 0.45507801
-2.0546899 8.1122999 0.366211
-2.4296899 9.9658203 0.45507801
-1.9726599 8.02637 0.368164
-2.3408201 9.93262 0.45507801
-1.92676 8.1269503 0.366211
-2.2714801 9.9960899 0.45507801
-1.85059 8.0595703 0.368164
-2.1835899 9.9619102 0.45507801
-1.79102 8.0898399 0.36718801
-2.11426 10.0342 0.45507801
-1.71777 8.0302696 0.36914101
-2.02441 9.97754 0.45507801
-1.66992 8.13867 0.366211
-1.9668 10.1387 0.45410201
-1.60059 8.09863 0.368164
-1.87695 10.0811 0.45507801
-1.55566 8.2460899 0.36523399
-1.80566 10.1611 0.45410201
-1.4834 8.1845703 0.366211
-1.72168 10.1416 0.45507801
-1.42871 8.2714796 0.36425799
-1.65332 10.2598 0.45410201
-1.35938 8.2285204 0.36523399
-1.56543 10.209 0.45410201
-1.30273 8.3046904 0.36425799
-1.49023 10.2773 0.45410201
-1.2334 8.2607403 0.36523399
-1.4023401 10.2148 0.45410201
-1.1757801 8.3457003 0.36328101
-1.33301 10.3711 0.453125
-1.1084 8.3105497 0.36425799
-1.24902 10.3574 0.453125
-1.0429699 8.29492 0.36523399
-1.1679699 10.3818 0.453125
-0.98046899 8.3378897 0.36425799
-1.08398 10.3672 0.453125
-0.91796899 8.40137 0.36230499
-0.850586 8.34375 0.36425799
-0.91992199 10.4043 0.453125
-0.78906202 8.4658203 0.36132801
-0.72167999 8.3564501 0.36328101
